[
#timezone local#
#hourly#
#jump -7#
#jump 1#
#loop 6#
  {
      "WindDirection": #wind_dir "%s" "0" "x"#,
      "WindAvg": #wind_ave "%.0f" "" "wind_mph(x)"#
  },
#jump 1#
#endloop#
  {
      "WindDirection": #wind_dir "%s" "0" "x"#,
      "WindAvg": #wind_ave "%.0f" "" "wind_mph(x)"#
  }
]
